^C:\USERS\TOMI\SOURCE\REPOS\CONWAY\CONWAY\X64\DEBUG\KERNEL.CU.OBJ|C:\USERS\TOMI\SOURCE\REPOS\CONWAY\CONWAY\X64\DEBUG\SOURCE.OBJ
C:\USERS\TOMI\SOURCE\REPOS\CONWAY\X64\DEBUG\CONWAY.ILK
C:\USERS\TOMI\SOURCE\REPOS\CONWAY\X64\DEBUG\CONWAY.EXE
C:\USERS\TOMI\SOURCE\REPOS\CONWAY\X64\DEBUG\CONWAY.PDB
